{
  "type": "service_account",
  "project_id": "koa-fire-base",
  "private_key_id": "f00860de8644da41aad2498eb02502bb2defe05b",
  "private_key": "-----BEGIN PRIVATE KEY-----\nMIIEvAIBADANBgkqhkiG9w0BAQEFAASCBKYwggSiAgEAAoIBAQDT16smJ26qw3h3\nXoSAYUXftvv8avfjT1PzdQRKrK7cZoT/CtJ9wpF6h1TJNCzqIswb+HKt4CrU1r+D\nWkCPSGDwdstihX2O7hOQ8LbU8v/+AniR3wE0Hq73oriNlLFpoiYjLmljFFIUMxpV\npAXO1Sde35wAQsWuTX2Bebvm1j2v4sXLCKxRakguID9QoFexrNee1+VuPdYj2JZt\nwI0YJUiA5YRGCv4GHhGb7DfgDxGsO5lELXVKjE2wiUfiJXo/xi+B4zVAZU93dg1z\nevaj43U0lkd0WLRXpecNZZpuhm9V99kLrcvB78I1k1ux/tw78l89e4+iYmPSycVd\n6rIdEkMzAgMBAAECggEAVNJZDBjj3eoQlTM6OLE6Kh55fRNTmCeORMAI7OGBzmwa\nOoiZyZMbbwU69Kk4hrNSKKztNiO44qnt2ulLSlO/xOi7/QHYSV+YZAOOIWv/BjT1\nE+tH7xeOFUeJP99WviYXwSR3PB3J0562n63iSXPdpMZCD3Ss9GLAqxQUIZSM9JxM\nskkV7FzDV5+tcZ+0gON7w5vRJrvBby2xWi+WzsK6HiZsVB9Qe5s1QtIPMd8A1x0S\n6xb/1Ab6g0x92U+H2MUmT7UUQbMnLU96I/9dkZeIN1hCN2Awt3m/tezgAo7/NsQI\nVf+IaGGph+7TqO3swBXA9VpkAsQtqlPl9u55V/R0YQKBgQD2Dx07rTbMDQXsDiiJ\nQ0VxOePE4/HZsYkC1O+EHaeMEDGRpTM4Cc3drLh/jHcU7HvDXvtX3FgCSSDKVJnA\na1189sZtLix25gklHTTaSytFbRl+3AR76ptQdXuNNbBXHhqGRRX7dNjtLjTpbM1p\n3DgWZG40MJI5bTtmAXOI0p87MQKBgQDcZqqhdGavkUYjNbJAbk51Pd3T7tIbL/18\nmBhedukUXCvtw74ZpEfX8Ac0WgzQn2tyvIthcngrbAXH0z8r0ouwv++VZu/Q2MW9\nIk9YCFJRuHp+yWpz62wYTIkrDQD2pq1r9vkTBXjCzx0qPwMXN2IBK+d2YOyUb77R\nC9wA6F4DowKBgFhw7kz44W1OcQZ7wE42A8vCxv+J/vAEQ/7kkoKmNga9+1MiUdqe\ni4RWBKqzzkmTBpkelrDp3ihUKJkQ94KWFLBJ8uBjbFAANuFEMi8UPaVipXtXkbUI\ninLNB2+mEI//ngEM6+3J/f6iURplpR+bq/1Ac+wGWUiS3nq3otNXASzBAoGAcOtk\n1o2VorPSdG2pYttg9S56PX/pQ6alv7UJHzTbG+RRWWLlPavuZxMCDe9pC2XyHfm9\ni3KjYNPablOr1N7tVOQxcqEnkx/Mx6cRca/pxRa4I8c79CIU4qoryNPDv5sL1PnX\nCMjP4zdL4P4hrj5gxurgjsT/0NkjsWTbFdf3evMCgYBwW2zLD0qcDuOL7K9LJRCx\nJK+ErORJQk2113xMI4cflxROFjkjIQumOmPak0ximjsKz1REgai0mCH6eVdlBXHQ\nGlUCcMuLaE+kWxGbsCyPNrjXU2lt565ctDsPeRw1eso1LzA63Jk0vtSjjSL9yc9u\nDqF7mDnPOwqoBXNmi4U2Cg==\n-----END PRIVATE KEY-----\n",
  "client_email": "firebase-adminsdk-x4u16@koa-fire-base.iam.gserviceaccount.com",
  "client_id": "118424880189164659010",
  "auth_uri": "https://accounts.google.com/o/oauth2/auth",
  "token_uri": "https://oauth2.googleapis.com/token",
  "auth_provider_x509_cert_url": "https://www.googleapis.com/oauth2/v1/certs",
  "client_x509_cert_url": "https://www.googleapis.com/robot/v1/metadata/x509/firebase-adminsdk-x4u16%40koa-fire-base.iam.gserviceaccount.com",
  "universe_domain": "googleapis.com"
}
